{
    "displaytimerdata": [
        {
            "name": "Simple test module",
            "active": "1",
            "what": {
                "html": {
                    "content": "<div id=\"ext-testmodule\">Hello world!  Preview</div>"
                },
                "style": {
                    "pages": [
                        {
                            "urls": [
                                "*m2.*"
                            ],
                            "content": "#ext-testmodule { font-size: 4rem; text-align: center; padding: 20px; box-shadow: 0px 0px 10px; border-radius: 5px; background: black; color: white; margin: 20px 0;}"
                        },
                        {
                            "urls": [
                                "*www.|preview.*"
                            ],
                            "content": "#ext-testmodule { font-size: 4rem; text-align: center; padding: 20px; box-shadow: 0px 0px 10px; border-radius: 5px; background: black; color: white; margin: 20px 0;}"
                        }
                    ]
                }
            },
            "where": {
                "pages": [
                    {
                        "urls": [
                            "*www.|preview.*/dk/da/"
                        ],
                        "locations": [
                            {
                                "selector": "#whatsection",
                                "elementnr": 0,
                                "placing": "before",
                                "effect": "zoomIn"
                            }
                        ]
                    },
                    {
                        "urls": [
                            "*m2.ikea.com/dk/da/"
                        ],
                        "locations": [
                            {
                                "selector": "header",
                                "elementnr": 0,
                                "placing": "after",
                                "effect": "zoomIn"                                
                            }
                        ]
                    }
                ]
            },
            "when": {
                "dates": [
                    {
                        "from": {
                            "date": "2018-08-31",
                            "time": "08:00"
                        },
                        "to": {
                            "date": "2019-01-31",
                            "time": "08:00"
                        }
                    }
                ]
            }
        },
        {
            "name": "Fraktpris - aktivitetsbanner",
            "active": "1",
            "what": {
                "html": {
                    "content": "<div id=\"ext-fraktpriscontainer\"><a class=\"ext-fraktpris-banner\" href=\"https://m2.ikea.com/no/no/customer-service/transport-og-fraktpriser-pub8c682b11\"><span>Ny lavere fraktpris på postpakkeleveranser: 49,–</span></a></div>"
                },
                "style": {
                    "pages": [
                        {
                            "urls": [
                                "*www.|preview.*/catalog/categories/departments/childrens_ikea/*",
                                "*www.|preview.*/catalog/categories/departments/living_room/*",
                                "*www.|preview.*/catalog/categories/departments/kitchen/*",
                                "*www.|preview.*/catalog/categories/departments/dining/*",
                                "*www.|preview.*/catalog/categories/departments/bedroom/*",
                                "*www.|preview.*/catalog/categories/departments/secondary_storage/*",
                                "*www.|preview.*/catalog/categories/departments/bathroom/*",
                                "*www.|preview.*/catalog/categories/departments/outdoor/*",
                                "*www.|preview.*/catalog/categories/departments/workspaces/*",
                                "*www.|preview.*/catalog/categories/departments/lighting/*",
                                "*www.|preview.*/catalog/categories/departments/decoration/*",
                                "*www.|preview.*/catalog/categories/departments/hallway/*",
                                "*www.|preview.*/catalog/categories/departments/Textiles/*"
                            ],
                            "content": ".ext-fraktpris-banner { background-color: #a0cc75;min-height: 40px;margin-bottom:6px;font-size: 16px;text-decoration: none !important;color: #000 !important;text-align: center;margin-top: -46px;display: flex;flex-direction:column;justify-content: space-evenly; }"
                        },
                        {
                            "urls": [
                                "*m2.*"
                            ],
                            "content": ".ext-fraktpris-banner { background-color: #a0cc75;min-height: 40px;margin-bottom:6px;font-size: 16px;text-decoration: none !important;color: #000 !important;text-align: center;display: flex;flex-direction:column;justify-content: space-evenly; }"
                        },
                        {
                            "urls": [
                                "*www.|preview.*/no/no/"
                            ],
                            "content": ".ext-fraktpris-banner { background-color: #a0cc75;min-height: 40px;margin-bottom:6px;font-size: 16px;text-decoration: none !important;color: #000 !important;text-align: center;display: flex;flex-direction:column;justify-content: space-evenly;width: 100%; } #innerContainer {height: initial !important;} "
                        }
                    ]
                }
            },
            "where": {
                "pages": [
                    {
                        "urls": [
                            "*www.|preview.*/no/no/"
                        ],
                        "locations": [
                            {
                                "effect": "appear",
                                "placing": "before",
                                "selector": "#whatsection",
                                "elementnr": 0
                            }
                        ]
                    },
                    {
                        "urls": [
                            "*www.|preview.*/catalog/categories/departments/childrens_ikea/*",
                            "*www.|preview.*/catalog/categories/departments/living_room/*",
                            "*www.|preview.*/catalog/categories/departments/kitchen/*",
                            "*www.|preview.*/catalog/categories/departments/dining/*",
                            "*www.|preview.*/catalog/categories/departments/bedroom/*",
                            "*www.|preview.*/catalog/categories/departments/secondary_storage/*",
                            "*www.|preview.*/catalog/categories/departments/bathroom/*",
                            "*www.|preview.*/catalog/categories/departments/outdoor/*",
                            "*www.|preview.*/catalog/categories/departments/workspaces/*",
                            "*www.|preview.*/catalog/categories/departments/lighting/*",
                            "*www.|preview.*/catalog/categories/departments/decoration/*",
                            "*www.|preview.*/catalog/categories/departments/hallway/*",
                            "*www.|preview.*/catalog/categories/departments/Textiles/*"
                        ],
                        "locations": [
                            {
                                "effect": "appear",
                                "placing": "after",
                                "selector": "div#topNavigation",
                                "elementnr": 0
                            }
                        ]
                    },
                    {
                        "urls": [
                            "*m2.*/stue/*",
                            "*m2.*/kjokken/*",
                            "*m2.*/spiseplassen/*",
                            "*m2.*/soverom/*",
                            "*m2.*/baderom/*",
                            "*m2.*/hagemobler/*",
                            "*m2.*/barnerom/*",
                            "*m2.*/arbeidsplassen/*",
                            "*m2.*/oppbevaring/*",
                            "*m2.*/belysning/*",
                            "*m2.*/tekstiler/*",
                            "*m2.*/dekorasjon/*"
                        ],
                        "locations": [
                            {
                                "effect": "fade",
                                "placing": "after",
                                "selector": "nav",
                                "elementnr": 1
                            }
                        ]
                    },
                    {
                        "urls": [
                            "*m2.ikea.com/no/no/"
                        ],
                        "locations": [
                            {
                                "effect": "fade",
                                "placing": "after",
                                "selector": "header",
                                "elementnr": 0
                            }
                        ]
                    }
                ]
            },
            "when": {
                "dates": [
                    {
                        "from": {
                            "date": "2018-08-31",
                            "time": "08:00"
                        }
                    }
                ]
            }
        }
    ]
}