{
    "displaytimertemplates": [
        {
            "name": "contact-form",
            "what": {
                "html": {
                    "content": "<style>iframe:focus {outline: none;}iframe[seamless] {display: block;}</style><iframe src=\"<%this.url%>\" height=\"<%this.height%>\" width=\"<%this.width%>\" frameborder=\"0\"><p>Your browser does not support iframes.</p></iframe>",
                    "options": {
                        "height": 800,
                        "width": "100%"
                    }
                }
            }
        },
        {
            "name": "contact-form-under-header",
            "template": "contact-form",
            "where": {
                "pages": [
                    {
                        "locations": [
                            {
                                "selector": "h1.hero__heading",
                                "elementnr": 0,
                                "placing": "after",
                                "effect": "fade"
                            }
                        ]
                    }
                ]
            }
        },
        {
            "name": "contact-form-over-footer",
            "template": "contact-form",
            "where": {
                "pages": [
                    {
                        "locations": [
                            {
                                "selector": ".social-media-bar.js-social-media-bar",
                                "elementnr": 0,
                                "placing": "before",
                                "effect": "fade"
                            }
                        ]
                    }
                ]
            }
        }
    ]
}