<?xml version="1.0" encoding="utf-8"?>
<!-- Generator: Adobe Illustrator 21.1.0, SVG Export Plug-In . SVG Version: 6.00 Build 0)  -->
<svg version="1.1" id="Layer_1" xmlns="http://www.w3.org/2000/svg" xmlns:xlink="http://www.w3.org/1999/xlink" x="0px" y="0px"
	 viewBox="0 0 1953.7 1836" style="enable-background:new 0 0 1953.7 1836;" xml:space="preserve">
<style type="text/css">
	.st0{stroke:#000000;stroke-miterlimit:10;}
</style>
<path class="st0" d="M2008,469c-9.9-13.4-25.6-28.9-42.4-28.9h-325.2h-12.5C1538.7,175.1,1293.5,0,1011.7,0
	c-281.9,0-527,175.1-616.3,440.1H52.7c-16.7,0-32.4,15.5-42.4,28.9s-12.9,34.5-8,50.5l323,1047.7c6.8,22.1,27.2,30.9,50.4,30.9h685
	h582c23.2,0,43.6-6.9,50.4-29l323-1053.7C2020.9,499.4,2018,482.4,2008,469z M1011.7,108.4c222.1,0,416.9,170.7,500.4,331.7H511.2
	C594.7,279.1,789.5,108.4,1011.7,108.4z M1603.7,1494.1h-543.1h-646L124,544.1h304.2h1212.2h254L1603.7,1494.1z"/>
</svg>
